ingredient_config,-,ingredient_type,spirit,spirit,spirit,spirit,spirit,spirit,mixer,mixer,mixer,mixer,spirit,spirit,spirit,spirit,mixer,mixer,mixer,mixer,mixer,mixer,splasher,splasher,mixer,mixer,splasher,splasher,garnish,garnish,garnish,garnish,garnish,garnish
ingredient_config,-,valve_number,1,3,8,7,6,9,4,5,10,11,16,18,19,20,21,22,23,24,25,26,28,27,2,17,29,30,,,,,,
ingredient_config,-,valve_position,1,1,3,2,2,3,2,2,3,3,1,1,2,2,2,2,3,3,3,3,1,2,1,1,1,3,,,,,,
ingredient_config,-,controller_address,5,5,5,5,5,5,5,5,5,5,6,6,6,6,6,6,6,6,6,6,5,5,6,6,6,6,,,,,,
ingredient_config,-,controller_pin_number,2,4,9,8,7,10,5,6,11,12,2,4,5,12,6,7,8,9,10,11,3,15,3,16,14,1,,,,,,
ingredient_config,-,container_size_floz,64,64,64,64,64,64,64,64,64,64,32,32,32,32,32,32,32,32,32,32,8,8,64,32,8,8,,,,,,
ingredient_config,-,ingredient_name,Vodka,Gin,Tequila,Light Rum,Dark Rum,Rye Whiskey,Ginger Beer,Club Soda,Coca Cola,Tonic Water,Sweet Vermouth,Campari,Cognac,Triple Sec,Orange Juice,Pineapple Juice,Cranberry Juice,Lime Juice,Lemon Juice,Simple Syrup,Angostura Bitters,Peychaurd Bitters,Grenadine,Dry Vermouth,Absinthe,Orgeat,an Olive,a Lemon Twist,a Cherry,Mint,an Orange Slice,a Lime Slice
ingredient_config,-,pour_speed_ms_per_oz,540,540,540,540,540,540,540,540,540,540,540,540,540,540,540,540,540,540,540,540,3800,3800,540,540,3800,3800,,,,,,
ingredient_config,-,pour_speed_ms_per_dash,15,15,15,15,15,15,15,15,15,15,15,15,15,15,15,15,15,15,15,15,90,90,15,15,90,90,,,,,,
ingredient_config,-,pour_speed_ms_per_splash,30,30,30,30,30,30,30,30,30,30,30,30,30,30,30,30,30,30,30,30,225,225,30,30,225,225,,,,,,
ingredient_config,-,pour_speed_ms_per_tsp,85,85,85,85,85,85,85,85,85,85,85,85,85,85,85,85,85,85,85,85,700,700,85,85,700,700,,,,,,
ingredient_config,-,max_pour_duration_ms,9999,9999,9999,9999,9999,9999,2000,2000,2000,2000,9999,9999,9999,9999,9999,9999,9999,9999,9999,9999,9999,9999,9999,9999,9999,9999,,,,,,
ingredient_config,-,post_pour_delay_ms,2000,2000,2000,2000,2000,2000,2000,2000,2000,2000,2000,2000,2000,2000,2000,2000,2000,2000,2000,2000,2000,2000,2000,2000,2000,2000,,,,,,
recipe_header,recipe_name,serving_size_oz,-,-,-,-,-,-,-,-,-,-,-,-,-,-,-,-,-,-,-,-,-,-,-,-,-,-,,,,,,
recipe,Shake It Off,5,,,3,,,,,,,,,,,1,,,1,1,,0.5,,,0.5,,,,,,X,,,
recipe,Gin Martini,4,,6,,,,,,,,,,,,,,,,,,,,,,1,,,X,,,,,
recipe,Manhattan,4,,,,,,2,,,,,1,,,,,,,,,,2d,,,,,,,,X,,,
recipe,Daiquiri,5,,,,9,,,,,,,,,,,,,,5,,3,,,,,,,,,,,,X
recipe,Cosmo,5,2,,,,,,,,,,,,,1,,,2,1,,,,,,,,,,,,,,X
recipe,Margarita,5,,,7,,,,,,,,,,,4,,,,3,,,,,,,,,,,,,,X
recipe,Gin and Tonic,5,,1,,,,,,,,2,,,,,,,,,,,,,,,,,,,,,,
recipe,Rum and Cola,5,,,,2,,,,,5,,,,,,,,,,,,,,,,,,,,,,,X
recipe,Dark and Stormy,5,,,,,1,,2,,,,,,,,,,,1d,,,,,,,,,,,,,,X
recipe,Sazerac,4,,,,,,4,,,,,,,,,,,,,,0.5,1d,2d,,,1,,,X,,,,
recipe,Screwdriver,5,1,,,,,,,,,,,,,,2,,,,,,,,,,,,,,,,X,
recipe,Gimlet,5,,4,,,,,,,,,,,,,,,,1,,1,,,,,,,,,,,,X
recipe,Whiskey and Coke,5,,,,,,1,,,3,,,,,,,,,,,,,,,,,,,,,,,
recipe,Mai Tai,4,,,,8,4,,,,,,,,,3,,,,2,,,,,,,,3,,,,X,X,
recipe,Moscow Mule,5,9,,,,,,24,,,,,,,,,,,1,,,,,,,,,,,,,,X
recipe,Old Fashioned,4,,,,,,9,,,,,,,,,,,,,,1,4d,,,,,,,,,,,
recipe,Negroni,4,,1,,,,,,,,,1,1,,,,,,,,,,,,,,,,,,,X,
recipe,Planters Punch,5,,,,,4.5,,,,,,,,,,3.5,3.5,,2,,1,4d,,1,,,,,,,,,
recipe,Whiskey Sour,4,,,,,,3,,,,,,,,,,,,,2,1,,,,,,,,,X,,X,
recipe,Side Car,5,,,,,,,,,,,,,3,2,,,,,2,,,,,,,,,X,,,,
recipe,Tequila Sunrise,5,,,3,,,,,,,,,,,,6,,,,,,,,1,,,,,,,,,
recipe,Virgin Royal Hawaiian,5,,,,,,,,,,,,,,,,4,,1,,,,,,,,1,,,,,,
recipe,Vodka Martini,5,6,,,,,,,,,,,,,,,,,,,,,,,1,,,X,,,,,
recipe,Tom Collins,5,,2,,,,,,2,,,,,,,,,,,0.5,1t,,,,,,,,,,,,
recipe,Kamikaze,2,1,,,,,,,,,,,,,1,,,,1,,,,,,,,,,,,,,
recipe,Cuba Libre,5,,,,1,,,,,2,,,,,,,,,0.5,,,,,,,,,,,,,,
recipe,Between the Sheets,5,,,,3,,,,,,,,,3,3,,,,,2,,,,,,,,,,,,,
recipe,Monkey Gland,5,,5,,,,,,,,,,,,,3,,,,,,,,2d,,2d,,,,,,,
recipe,White Lady,5,,4,,,,,,,,,,,,3,,,,,2,,,,,,,,,,,,,
recipe,Mary Pickford,5,,,,6,,,,,,,,,,,,6,,,,,,,1,,,,,,X,,,
recipe,Bacardi,5,,,,9,,,,,,,,,,,,,,,4,,,,1,,,,,,,,,
recipe,Rum-Brandy Punch,5,,,,,1,,,,,,,,3,,,,,,1,1,,,,,,,,X,,,,
recipe,Cosmo Rita,5,,,1.5,,,,,,,,,,,0.5,,,1,0.5,,,,,,,,,,,,,,
recipe,Tequila Daisy,5,,,2,,,,,1s,,,,,,0.5,,,,,0.5,1t,,,,,,,,,,,,
recipe,Americano,5,,,,,,,,3,,,1,1,,,,,,0.5,,0.5,,,,,,,,X,,,X,
recipe,Holland Gin Cock-Tail,5,,4,,,,,,,,,,,,1d,,,,,,3d,2d,,,,1d,,,,,,,
recipe,South side,5,,2,,,,,,,,,,,,,,,,,1,1,,,,,,,,,,X,,
recipe,Boulevardier,5,,,,,,1.25,,,,,1,1,,,,,,,,,,,,,,,,,,,X,
recipe,It Girl,5,1.5,,,,,,,,,,,0.5,,,,,1.5,0.75,,,,,,,,0.5,,X,,,,
recipe,Janet Howard,5,,,,,,,,,,,,,1,,,,,,,,1d,,,,,1s,,X,,,,
recipe,Army and Navy,5,,2,,,,,,,,,,,,,,,,,0.5,,,,,,,0.25,,,,,,
recipe,Formosa Blossom,5,,,,2,,,,,,,,,,,,1,,,3d,,,,,,,1,,,,,,
recipe,Natural,5,,,,3,,,,,,,,,1,,,,,,2d,,,,,,,2d,,,,,,X
recipe,Rum Squirt,5,,,,,1,,,2,,,,,,,,1s,,,,,,,,,,1s,,,,,,
recipe,Japanese,5,,,,,,,,,,,,,2,,,,,1,,,1d,,,,,1,,,,,,
recipe,Polo Dream,5,,,,,,5,,,,,,,,,4,,,,,,,,,,,2,,,,,,
recipe,Campari-Soda,5,,,,,,,,1,,,,1,,,,,,1s,,,,,,,,,,,,,,
recipe,Old Pale,5,,,,,,3,,,,,,1.5,,,,,,,,,,,,1.5,,,,X,,,X,
recipe,Jasmine,5,,3,,,,,,,,,,0.5,,0.5,,,,,1.5,,,,,,,,,,,,,
recipe,Campari Orange,5,,,,,,,,,,,,1,,,3,,,,,,,,,,,,,,,,,
recipe,Southern Cross,5,,,,4,,,,3,,,,,4,0.5,,,,2,,1,1d,,,,,,,,,,,
recipe,Orange Blossom,5,,1,,,,,,,,,,,,,1,,,,,,,,,,,,,,,,,
recipe,Viagra,5,3,,,,,,5,,,,,,,,,,,,1,,,,,,,,,,,X,,
recipe,Fog Horn,5,,1,,,,,3,,,,,,,,,,,,,,,,,,,,,,,,,
recipe,Light and Calm (Virgin),5,,,,,,,6,,,,,,,,,,,2,,,2d,,,,,,,,,,,X
recipe,Emerson,5,,1,,,,,,,,,1,,,,,,,1,,,,,3d,,,,,,,,,
recipe,Gibson Girl,5,,1,,,,,,,,,,,,,,,,,,,,,,1,,,,X,,,,
recipe,Original Sazerac,5,,,,,,,,,,,,,2,,,,,,,0.5,1d,2d,,,3d,,,X,,,,
recipe,Mint Julep,5,,,,,,2,,,,,,,,,,,,,,1,,2d,,,,,,,,X,,
recipe,Shirley Temple,5,,,,,,,,6,,,,,,,,,,0.5,0.5,,,,1,,,,,,X,,,
recipe,Cran-Dandy Cooler,5,,,,,,,2,,,,,,,,1,1,2,,0.25,,,,0.25,,,,,,X,,X,
recipe,Tornado Twist,5,,,,,,,,1,,,,,,,,,1,0.25,0.25,,,,,,,,,,,,,
recipe,Orange Fizz,5,,,,,,,,,,1,,,,,3,,,,0.25,,,,,,,,,,,,X,
recipe,Chinese Firebolt,5,,,,,,,,,4,,,,,,,,,0.5,,,,,0.5,,,,,X,,,,
recipe,Cosmo-Not,5,,,,,,,,2,,,,,,,,,4,0.25,0.25,,,,1,,,,,,,,,X
recipe,Virgin French 75,5,,,,,,,,,,2,,,,,,,,,1,0.25,1d,,,,,,,X,,,,
recipe,Moscow Mule Mocktail,5,,,,,,,3,1,,,,,,,,,,1,,,,,,,,,,,,,,X
recipe,Juicy Julep,5,,,,,,,2,,,,,,,,,1,1,1,,,,,,,,,,,,X,,
recipe,Customizer,5,0,0,3,0,0,0,0,0,0,0,0,0,0,1,0,0,1,1,0,0.5,0,0,0.5,0,0,0,,,,,,
